[
  {
    "id": "bollywood",
    "name": "bollywood"
  },
  {
    "id": "hollywood",
    "name": "hollywood"
  },
  {
    "id": "all",
    "name": "all"
  },
  {
    "id": "hindidubbed",
    "name": "hindidubbed"
  },
  {
    "id": "bengalimovies",
    "name": "bengalimovies"
  },
  {
    "id": "punjabimovies",
    "name": "punjabimovies"
  },
  {
    "id": "kannada",
    "name": "kannada"
  },
  {
    "id": "malayalam",
    "name": "malayalam"
  },
  {
    "id": "kids",
    "name": "kids"
  },
  {
    "id": "marathimovies",
    "name": "marathimovies"
  },
  {
    "id": "war",
    "name": "war"
  },
  {
    "id": "documentary",
    "name": "documentary"
  },
  {
    "id": "unknown",
    "name": "unknown"
  },
  {
    "id": "marvelmovies",
    "name": "marvelmovies"
  },
  {
    "id": "gujaratimovies",
    "name": "gujaratimovies"
  },
  {
    "id": "history",
    "name": "history"
  },
  {
    "id": "anime",
    "name": "anime"
  },
  {
    "id": "tulu",
    "name": "tulu"
  },
  {
    "id": "dcmovies",
    "name": "dcmovies"
  }
]